%YAML 1.1
%TAG !u! tag:unity3d.com,2011:
--- !u!50 &1286986745
Rigidbody2D:
  serializedVersion: 4
  m_ObjectHideFlags: 0
  m_CorrespondingSourceObject: {fileID: 0}
  m_PrefabInstance: {fileID: 0}
  m_PrefabAsset: {fileID: 0}
  m_GameObject: {fileID: 2992285609891527316}
  m_BodyType: 0
  m_Simulated: 1
  m_UseFullKinematicContacts: 0
  m_UseAutoMass: 0
  m_Mass: 1
  m_LinearDrag: 0
  m_AngularDrag: 0.05
  m_GravityScale: 1
  m_Material: {fileID: 0}
  m_Interpolate: 0
  m_SleepingMode: 1
  m_CollisionDetection: 0
  m_Constraints: 0
--- !u!1001 &7795551565126170583
PrefabInstance:
  m_ObjectHideFlags: 0
  serializedVersion: 2
  m_Modification:
    m_TransformParent: {fileID: 0}
    m_Modifications:
    - target: {fileID: 5019797453152259395, guid: 87bd569302a676a49aecf5c700302fbe,
        type: 3}
      propertyPath: m_Name
      value: Adult
      objectReference: {fileID: 0}
    - target: {fileID: 2210230097019134058, guid: 87bd569302a676a49aecf5c700302fbe,
        type: 3}
      propertyPath: _pointsEarn
      value: 200
      objectReference: {fileID: 0}
    - target: {fileID: 2210230097019134058, guid: 87bd569302a676a49aecf5c700302fbe,
        type: 3}
      propertyPath: _pointsLoss
      value: 50
      objectReference: {fileID: 0}
    - target: {fileID: 2210230097019134058, guid: 87bd569302a676a49aecf5c700302fbe,
        type: 3}
      propertyPath: _fallSpeed.y
      value: 1
      objectReference: {fileID: 0}
    - target: {fileID: 2210230097019134058, guid: 87bd569302a676a49aecf5c700302fbe,
        type: 3}
      propertyPath: _catWalkSpeed.x
      value: -1
      objectReference: {fileID: 0}
    - target: {fileID: 2210230097019134058, guid: 87bd569302a676a49aecf5c700302fbe,
        type: 3}
      propertyPath: _class
      value: 1
      objectReference: {fileID: 0}
    - target: {fileID: 4432868255542783982, guid: 87bd569302a676a49aecf5c700302fbe,
        type: 3}
      propertyPath: m_LocalPosition.x
      value: 0
      objectReference: {fileID: 0}
    - target: {fileID: 4432868255542783982, guid: 87bd569302a676a49aecf5c700302fbe,
        type: 3}
      propertyPath: m_LocalPosition.y
      value: 0
      objectReference: {fileID: 0}
    - target: {fileID: 4432868255542783982, guid: 87bd569302a676a49aecf5c700302fbe,
        type: 3}
      propertyPath: m_LocalPosition.z
      value: 0
      objectReference: {fileID: 0}
    - target: {fileID: 4432868255542783982, guid: 87bd569302a676a49aecf5c700302fbe,
        type: 3}
      propertyPath: m_LocalRotation.x
      value: 0
      objectReference: {fileID: 0}
    - target: {fileID: 4432868255542783982, guid: 87bd569302a676a49aecf5c700302fbe,
        type: 3}
      propertyPath: m_LocalRotation.y
      value: 0
      objectReference: {fileID: 0}
    - target: {fileID: 4432868255542783982, guid: 87bd569302a676a49aecf5c700302fbe,
        type: 3}
      propertyPath: m_LocalRotation.z
      value: 0
      objectReference: {fileID: 0}
    - target: {fileID: 4432868255542783982, guid: 87bd569302a676a49aecf5c700302fbe,
        type: 3}
      propertyPath: m_LocalRotation.w
      value: 1
      objectReference: {fileID: 0}
    - target: {fileID: 4432868255542783982, guid: 87bd569302a676a49aecf5c700302fbe,
        type: 3}
      propertyPath: m_RootOrder
      value: 0
      objectReference: {fileID: 0}
    - target: {fileID: 4432868255542783982, guid: 87bd569302a676a49aecf5c700302fbe,
        type: 3}
      propertyPath: m_LocalEulerAnglesHint.x
      value: 0
      objectReference: {fileID: 0}
    - target: {fileID: 4432868255542783982, guid: 87bd569302a676a49aecf5c700302fbe,
        type: 3}
      propertyPath: m_LocalEulerAnglesHint.y
      value: 0
      objectReference: {fileID: 0}
    - target: {fileID: 4432868255542783982, guid: 87bd569302a676a49aecf5c700302fbe,
        type: 3}
      propertyPath: m_LocalEulerAnglesHint.z
      value: 0
      objectReference: {fileID: 0}
    - target: {fileID: 6234294042435696775, guid: 87bd569302a676a49aecf5c700302fbe,
        type: 3}
      propertyPath: m_LocalPosition.y
      value: 0.469
      objectReference: {fileID: 0}
    - target: {fileID: 6234294042435696775, guid: 87bd569302a676a49aecf5c700302fbe,
        type: 3}
      propertyPath: m_LocalScale.x
      value: 0.413785
      objectReference: {fileID: 0}
    - target: {fileID: 6234294042435696775, guid: 87bd569302a676a49aecf5c700302fbe,
        type: 3}
      propertyPath: m_LocalScale.y
      value: 0.413785
      objectReference: {fileID: 0}
    - target: {fileID: 6234294042435696775, guid: 87bd569302a676a49aecf5c700302fbe,
        type: 3}
      propertyPath: m_LocalScale.z
      value: 0.413785
      objectReference: {fileID: 0}
    - target: {fileID: 815800736333291759, guid: 87bd569302a676a49aecf5c700302fbe,
        type: 3}
      propertyPath: m_Sprite
      value: 
      objectReference: {fileID: 21300000, guid: 08afa2a72c85da44faabed57dd8509c9,
        type: 3}
    - target: {fileID: 815800736333291759, guid: 87bd569302a676a49aecf5c700302fbe,
        type: 3}
      propertyPath: m_Size.x
      value: 0.94
      objectReference: {fileID: 0}
    - target: {fileID: 815800736333291759, guid: 87bd569302a676a49aecf5c700302fbe,
        type: 3}
      propertyPath: m_Size.y
      value: 1.88
      objectReference: {fileID: 0}
    - target: {fileID: 815800736333291759, guid: 87bd569302a676a49aecf5c700302fbe,
        type: 3}
      propertyPath: m_WasSpriteAssigned
      value: 1
      objectReference: {fileID: 0}
    m_RemovedComponents: []
  m_SourcePrefab: {fileID: 100100000, guid: 87bd569302a676a49aecf5c700302fbe, type: 3}
--- !u!1 &2992285609891527316 stripped
GameObject:
  m_CorrespondingSourceObject: {fileID: 5019797453152259395, guid: 87bd569302a676a49aecf5c700302fbe,
    type: 3}
  m_PrefabInstance: {fileID: 7795551565126170583}
  m_PrefabAsset: {fileID: 0}
